[
  {
    "sqlTypeName": "BOOLEAN",
    "sqlType": 16,
    "javaSimpleTypeName": "Boolean",
    "javaBoxedTypeName": "boolean",
    "kotlinSimpleTypeName": "Boolean",
    "resultSetFn": "getBoolean",
    "setParamFn": "setBoolean",
    "setListParamFn": "setList",
    "stringConversionPackage": "Boolean",
    "stringConversionMethod": "parseBoolean",
    "listStringConversionMethod": "parseBooleanList",
    "isPrimitive": true,
    "reasonableDefault": "true"
  },
  {
    "sqlTypeName": "TINYINT",
    "sqlType": -6,
    "javaSimpleTypeName": "byte",
    "javaBoxedTypeName": "byte",
    "kotlinSimpleTypeName": "Byte",
    "resultSetFn": "getByte",
    "setParamFn": "setByte",
    "setListParamFn": "setList",
    "stringConversionPackage": "byte",
    "stringConversionMethod": "parseByte",
    "listStringConversionMethod": "parseByteList",
    "isPrimitive": true,
    "reasonableDefault": "1"
  },
  {
    "sqlTypeName": "SMALLINT",
    "sqlType": 5,
    "javaSimpleTypeName": "short",
    "javaBoxedTypeName": "Short",
    "kotlinSimpleTypeName": "Short",
    "resultSetFn": "getShort",
    "setParamFn": "setShort",
    "setListParamFn": "setList",
    "stringConversionPackage": "Short",
    "stringConversionMethod": "parseShort",
    "listStringConversionMethod": "parseShortList",
    "isPrimitive": true,
    "reasonableDefault": "1"
  },
  {
    "sqlTypeName": "INTEGER",
    "sqlType": 4,
    "javaSimpleTypeName": "int",
    "javaBoxedTypeName": "Integer",
    "kotlinSimpleTypeName": "Int",
    "resultSetFn": "getInt",
    "setParamFn": "setInt",
    "setListParamFn": "setList",
    "stringConversionPackage": "Integer",
    "stringConversionMethod": "parseInt",
    "listStringConversionMethod": "parseIntegerList",
    "isPrimitive": true,
    "reasonableDefault": "1"
  },
  {
    "sqlTypeName": "SERIAL",
    "sqlType": 4,
    "javaSimpleTypeName": "int",
    "javaBoxedTypeName": "Integer",
    "kotlinSimpleTypeName": "Int",
    "resultSetFn": "getInt",
    "setParamFn": "setInt",
    "setListParamFn": "setList",
    "stringConversionPackage": "Integer",
    "stringConversionMethod": "parseInt",
    "listStringConversionMethod": "parseIntegerList",
    "isPrimitive": true,
    "reasonableDefault": "1"
  },
  {
    "sqlTypeName": "BIGINT",
    "sqlType": -5,
    "javaSimpleTypeName": "long",
    "javaBoxedTypeName": "Long",
    "kotlinSimpleTypeName": "Long",
    "resultSetFn": "getLong",
    "setParamFn": "setLong",
    "setListParamFn": "setList",
    "stringConversionPackage": "Long",
    "stringConversionMethod": "parseLong",
    "listStringConversionMethod": "parseLongList",
    "isPrimitive": true,
    "reasonableDefault": "1"
  },
  {
    "sqlTypeName": "FLOAT",
    "sqlType": 6,
    "javaSimpleTypeName": "float",
    "javaBoxedTypeName": "Float",
    "kotlinSimpleTypeName": "Float",
    "resultSetFn": "getFloat",
    "setParamFn": "setFloat",
    "setListParamFn": "setList",
    "stringConversionPackage": "Float",
    "stringConversionMethod": "parseFloat",
    "listStringConversionMethod": "parseFloatList",
    "isPrimitive": true,
    "reasonableDefault": "1.0"
  },
  {
    "sqlTypeName": "REAL",
    "sqlType": 7,
    "javaSimpleTypeName": "double",
    "javaBoxedTypeName": "Double",
    "kotlinSimpleTypeName": "Double",
    "resultSetFn": "getDouble",
    "setParamFn": "setDouble",
    "setListParamFn": "setList",
    "stringConversionPackage": "Double",
    "stringConversionMethod": "parseDouble",
    "listStringConversionMethod": "parseDoubleList",
    "isPrimitive": true,
    "reasonableDefault": "1.0"
  },
  {
    "sqlTypeName": "DOUBLE",
    "sqlType": 8,
    "javaSimpleTypeName": "double",
    "javaBoxedTypeName": "Double",
    "kotlinSimpleTypeName": "Double",
    "resultSetFn": "getDouble",
    "setParamFn": "setDouble",
    "setListParamFn": "setList",
    "stringConversionPackage": "Double",
    "stringConversionMethod": "parseDouble",
    "listStringConversionMethod": "parseDoubleList",
    "isPrimitive": true,
    "reasonableDefault": "1.0"
  },
  {
    "sqlTypeName": "NUMERIC",
    "sqlType": 2,
    "javaSimpleTypeName": "double",
    "javaBoxedTypeName": "Double",
    "kotlinSimpleTypeName": "Double",
    "resultSetFn": "getDouble",
    "setParamFn": "setDouble",
    "setListParamFn": "setList",
    "stringConversionPackage": "Double",
    "stringConversionMethod": "parseDouble",
    "listStringConversionMethod": "parseDoubleList",
    "isPrimitive": true,
    "reasonableDefault": "1.0"
  },
  {
    "sqlTypeName": "DECIMAL",
    "sqlType": 3,
    "javaSimpleTypeName": "double",
    "javaBoxedTypeName": "Double",
    "kotlinSimpleTypeName": "Double",
    "resultSetFn": "getDouble",
    "setParamFn": "setDouble",
    "setListParamFn": "setList",
    "stringConversionPackage": "Double",
    "stringConversionMethod": "parseDouble",
    "listStringConversionMethod": "parseDoubleList",
    "isPrimitive": true,
    "reasonableDefault": "1.0"
  },
  {
    "sqlTypeName": "CHAR",
    "sqlType": 1,
    "javaSimpleTypeName": "char",
    "javaBoxedTypeName": "Character",
    "kotlinSimpleTypeName": "Char",
    "resultSetFn": "(char) getByte",
    "setParamFn": "setByte",
    "setListParamFn": "setList",
    "stringConversionPackage": "parseUtils",
    "stringConversionMethod": "parseByteAsChar",
    "listStringConversionMethod": "parseByteArrayList",
    "isPrimitive": true,
    "reasonableDefault": "\u0027a\u0027"
  },
  {
    "sqlTypeName": "VARCHAR",
    "sqlType": 12,
    "javaSimpleTypeName": "String",
    "javaBoxedTypeName": "String",
    "kotlinSimpleTypeName": "String",
    "resultSetFn": "getString",
    "setParamFn": "setString",
    "setListParamFn": "setList",
    "listStringConversionMethod": "parseStringList",
    "isPrimitive": false,
    "reasonableDefault": "\"a\""
  },
  {
    "sqlTypeName": "TEXT",
    "sqlType": 12,
    "javaSimpleTypeName": "String",
    "javaBoxedTypeName": "String",
    "kotlinSimpleTypeName": "String",
    "resultSetFn": "getString",
    "setParamFn": "setString",
    "setListParamFn": "setList",
    "listStringConversionMethod": "parseStringList",
    "isPrimitive": false,
    "reasonableDefault": "\"a\""
  },
  {
    "sqlTypeName": "CHARACTER",
    "sqlType": 12,
    "javaSimpleTypeName": "String",
    "javaBoxedTypeName": "String",
    "kotlinSimpleTypeName": "String",
    "resultSetFn": "getString",
    "setParamFn": "setString",
    "setListParamFn": "setList",
    "listStringConversionMethod": "parseStringList",
    "isPrimitive": false,
    "reasonableDefault": "\"a\""
  },
  {
    "sqlTypeName": "TSVECTOR",
    "sqlType": 12,
    "javaSimpleTypeName": "String",
    "javaBoxedTypeName": "String",
    "kotlinSimpleTypeName": "String",
    "resultSetFn": "getString",
    "setParamFn": "setString",
    "setListParamFn": "setList",
    "listStringConversionMethod": "parseStringList",
    "isPrimitive": false,
    "reasonableDefault": "\"a\""
  },
  {
    "sqlTypeName": "TSQUERY",
    "sqlType": 12,
    "javaSimpleTypeName": "String",
    "javaBoxedTypeName": "String",
    "kotlinSimpleTypeName": "String",
    "resultSetFn": "getString",
    "setParamFn": "setString",
    "setListParamFn": "setList",
    "listStringConversionMethod": "parseStringList",
    "isPrimitive": false,
    "reasonableDefault": "\"a\""
  },
  {
    "sqlTypeName": "LONGVARCHAR",
    "sqlType": -1,
    "javaSimpleTypeName": "String",
    "javaBoxedTypeName": "String",
    "kotlinSimpleTypeName": "String",
    "resultSetFn": "getString",
    "setParamFn": "setString",
    "setListParamFn": "setList",
    "listStringConversionMethod": "parseStringList",
    "isPrimitive": false,
    "reasonableDefault": "\"a\""
  },
  {
    "sqlTypeName": "DATE",
    "sqlType": 91,
    "javaSimpleTypeName": "Date",
    "javaBoxedTypeName": "Date",
    "kotlinSimpleTypeName": "Date",
    "resultSetFn": "getDate",
    "setParamFn": "setDate",
    "setListParamFn": "setList",
    "stringConversionPackage": "parseUtils",
    "stringConversionMethod": "new SimpleDateFormat(Constants.ISO_8601_DATE_FORMAT).parseDate",
    "listStringConversionMethod": "parseDateList",
    "isPrimitive": false,
    "reasonableDefault": "\"2021-06-13T16:56:39+00:00\""
  },
  {
    "sqlTypeName": "TIME",
    "sqlType": 92,
    "javaSimpleTypeName": "long",
    "javaBoxedTypeName": "Long",
    "kotlinSimpleTypeName": "Long",
    "resultSetFn": "getLong",
    "setParamFn": "setLong",
    "setListParamFn": "setList",
    "stringConversionPackage": "Long",
    "stringConversionMethod": "parseLong",
    "listStringConversionMethod": "parseLongList",
    "isPrimitive": true,
    "reasonableDefault": "1"
  },
  {
    "sqlTypeName": "TIMESTAMP",
    "sqlType": 93,
    "javaSimpleTypeName": "Date",
    "javaBoxedTypeName": "Date",
    "kotlinSimpleTypeName": "Date",
    "resultSetFn": "getDate",
    "setParamFn": "setDate",
    "setListParamFn": "setList",
    "stringConversionPackage": "parseUtils",
    "stringConversionMethod": "new SimpleDateFormat(Constants.ISO_8601_DATE_FORMAT).parseDate",
    "listStringConversionMethod": "parseDateList",
    "isPrimitive": true,
    "reasonableDefault": "\"2021-06-13T16:56:39+00:00\""
  },
  {
    "sqlTypeName": "BINARY",
    "sqlType": -2,
    "javaSimpleTypeName": "byte[]",
    "javaBoxedTypeName": "byte[]",
    "kotlinSimpleTypeName": "ByteArray",
    "resultSetFn": "getBytes",
    "setParamFn": "setBytes",
    "setListParamFn": "setList",
    "stringConversionPackage": "parseUtils",
    "stringConversionMethod": "fromBase64",
    "listStringConversionMethod": "parseByteArrayList",
    "isPrimitive": false,
    "reasonableDefault": "\"ZGVhZGJlZWY\u003d\""
  },
  {
    "sqlTypeName": "VARBINARY",
    "sqlType": -3,
    "javaSimpleTypeName": "byte[]",
    "javaBoxedTypeName": "byte[]",
    "kotlinSimpleTypeName": "ByteArray",
    "resultSetFn": "getBytes",
    "setParamFn": "setBytes",
    "setListParamFn": "setList",
    "stringConversionPackage": "parseUtils",
    "stringConversionMethod": "fromBase64",
    "listStringConversionMethod": "parseByteArrayList",
    "isPrimitive": false,
    "reasonableDefault": "\"ZGVhZGJlZWY\u003d\""
  },
  {
    "sqlTypeName": "LONGVARBINARY",
    "sqlType": -4,
    "javaSimpleTypeName": "byte[]",
    "javaBoxedTypeName": "byte[]",
    "kotlinSimpleTypeName": "ByteArray",
    "resultSetFn": "getBytes",
    "setParamFn": "setBytes",
    "setListParamFn": "setList",
    "stringConversionPackage": "parseUtils",
    "stringConversionMethod": "fromBase64",
    "listStringConversionMethod": "parseByteArrayList",
    "isPrimitive": false,
    "reasonableDefault": "\"ZGVhZGJlZWY\u003d\""
  },
  {
    "sqlTypeName": "NULL",
    "sqlType": 0,
    "isPrimitive": false,
    "reasonableDefault": "null"
  },
  {
    "sqlTypeName": "OTHER",
    "sqlType": 1111,
    "javaSimpleTypeName": "byte[]",
    "javaBoxedTypeName": "byte[]",
    "kotlinSimpleTypeName": "ByteArray",
    "resultSetFn": "getBytes",
    "setParamFn": "setBytes",
    "setListParamFn": "setList",
    "stringConversionPackage": "parseUtils",
    "stringConversionMethod": "fromBase64",
    "listStringConversionMethod": "parseByteArrayList",
    "isPrimitive": false,
    "reasonableDefault": "\"ZGVhZGJlZWY\u003d\""
  },
  {
    "sqlTypeName": "JAVA_OBJECT",
    "sqlType": 2000,
    "javaSimpleTypeName": "byte[]",
    "javaBoxedTypeName": "byte[]",
    "kotlinSimpleTypeName": "ByteArray",
    "resultSetFn": "getBytes",
    "setParamFn": "setBytes",
    "setListParamFn": "setList",
    "stringConversionPackage": "parseUtils",
    "stringConversionMethod": "fromBase64",
    "listStringConversionMethod": "parseByteArrayList",
    "isPrimitive": false,
    "reasonableDefault": "\"ZGVhZGJlZWY\u003d\""
  },
  {
    "sqlTypeName": "DISTINCT",
    "sqlType": 2001,
    "javaSimpleTypeName": "int",
    "javaBoxedTypeName": "Integer",
    "kotlinSimpleTypeName": "Int",
    "resultSetFn": "getInt",
    "setParamFn": "setInt",
    "setListParamFn": "setList",
    "stringConversionPackage": "Integer",
    "stringConversionMethod": "parseInt",
    "listStringConversionMethod": "parseIntegerList",
    "isPrimitive": true,
    "reasonableDefault": "1"
  },
  {
    "sqlTypeName": "STRUCT",
    "sqlType": 2002,
    "javaSimpleTypeName": "byte[]",
    "javaBoxedTypeName": "byte[]",
    "kotlinSimpleTypeName": "ByteArray",
    "resultSetFn": "getBytes",
    "setParamFn": "setBytes",
    "setListParamFn": "setList",
    "stringConversionPackage": "parseUtils",
    "stringConversionMethod": "fromBase64",
    "listStringConversionMethod": "parseByteArrayList",
    "isPrimitive": true,
    "reasonableDefault": "\"ZGVhZGJlZWY\u003d\""
  },
  {
    "sqlTypeName": "ARRAY",
    "sqlType": 2003,
    "javaSimpleTypeName": "byte[]",
    "javaBoxedTypeName": "byte[]",
    "kotlinSimpleTypeName": "ByteArray",
    "resultSetFn": "getBytes",
    "setParamFn": "setBytes",
    "setListParamFn": "setList",
    "stringConversionPackage": "parseUtils",
    "stringConversionMethod": "fromBase64",
    "listStringConversionMethod": "parseByteArrayList",
    "isPrimitive": true,
    "reasonableDefault": "\"ZGVhZGJlZWY\u003d\""
  },
  {
    "sqlTypeName": "BLOB",
    "sqlType": 2004,
    "javaSimpleTypeName": "byte[]",
    "javaBoxedTypeName": "byte[]",
    "kotlinSimpleTypeName": "ByteArray",
    "resultSetFn": "getBytes",
    "setParamFn": "setBytes",
    "setListParamFn": "setList",
    "stringConversionPackage": "parseUtils",
    "stringConversionMethod": "fromBase64",
    "listStringConversionMethod": "parseByteArrayList",
    "isPrimitive": true,
    "reasonableDefault": "\"ZGVhZGJlZWY\u003d\""
  },
  {
    "sqlTypeName": "CLOB",
    "sqlType": 2005,
    "javaSimpleTypeName": "String",
    "javaBoxedTypeName": "String",
    "kotlinSimpleTypeName": "String",
    "resultSetFn": "getString",
    "setParamFn": "setString",
    "setListParamFn": "setList",
    "listStringConversionMethod": "parseStringList",
    "isPrimitive": true,
    "reasonableDefault": "\"a\""
  },
  {
    "sqlTypeName": "REF",
    "sqlType": 2006,
    "javaSimpleTypeName": "byte[]",
    "javaBoxedTypeName": "byte[]",
    "kotlinSimpleTypeName": "ByteArray",
    "resultSetFn": "getBytes",
    "setParamFn": "setBytes",
    "setListParamFn": "setList",
    "stringConversionPackage": "parseUtils",
    "stringConversionMethod": "fromBase64",
    "listStringConversionMethod": "parseByteArrayList",
    "isPrimitive": true,
    "reasonableDefault": "\"ZGVhZGJlZWY\u003d\""
  }
]