[{"customer_id" : 26,
  "name" : "Obi-Wan Kenobi",
  "address" : "Tatooine",
  "purchases" : [{ "customer_id" : 26,
  				   "purchase_id" : 21118,
				   "ignore_tag" : 1,
  				   "price" : 2001.0,
				   "store_id" : 1,
				   "item_id" : 1001,
				   "timestamp" : "12-01-2019" }]}]
